{
  "name": "Pages",
  "alias": "pages",
  "description": "",
  "keywords": [],
  "active": 1,
  "order": 0,
  "providers": [
    "Modules\\Pages\\Providers\\ModuleProvider"
  ],
  "aliases": {},
  "files": [
    "Http/routes.php"
  ]
}