{
  "name": "Naturel",
  "alias": "naturel",
  "description": "",
  "keywords": [],
  "active": 0,
  "order": 0,
  "providers": [
    "Modules\\Naturel\\Providers\\ModuleProvider"
  ],
  "aliases": {},
  "files": [
    "Http/routes.php"
  ]
}