{
  "name": "Partners",
  "alias": "partners",
  "description": "",
  "keywords": [],
  "active": 1,
  "order": 10,
  "providers": [
    "Modules\\Partners\\Providers\\ModuleProvider"
  ],
  "aliases": {},
  "files": [
    "Http/routes.php"
  ]
}